…
| Logicos | Sintaxis      |
|:--------|:--------------|
| NO      | !x            |
| Y       | x & y, x && y |
| O       | x | y, x || y |
| XOR     | xor(x, y)     |

Por ejemplo si quisieramos conocer los vuelos que despegaron el 4 de febrero:

``` r
# como no se asigna, R imprime el resultado
filter(vuelos, mes == 2, día == 4) 
```

    ## # A tibble: 932 × 19
    ##      año   mes   día hora_salida h_programada_salida demora_salida
    ##    <int> <int> <int>       <int>               <int>         <dbl>
    ## 1   2013     2     4         453                 500            -7
    ## 2   2013     2     4         522                 530            -8
    ## 3   2013     2     4         528                 525             3
    ## 4   2013     2     4         534                 540            -6
    ## 5   2013     2     4         534                 540            -6
    ## 6   2013     2     4         550                 600           -10
    ## 7   2013     2     4         551                 600            -9
    ## 8   2013     2     4         552                 600            -8
    ## 9   2013     2     4         553                 600            -7
    ## 10  2013     2     4         553                 600            -7
    ## # ... with 922 more rows, and 13 more variables: hora_llegada <int>,
    ## #   h_programada_llegada <int>, demora_llegada <dbl>, aerolinea <chr>,
    ## #   vuelo <int>, numerocola <chr>, origen <chr>, distancia <chr>,
    ## #   tiempo_vuelo <dbl>, distance <dbl>, hora <dbl>, minuto <dbl>,
    ## #   fecha_hora <dttm>

``` r
# Cuando se asigna, R NO imprime el resultado
feb4 <- filter(vuelos, mes == 2, día == 4) 

# Para asignar e imprimir se envuelve el comando en paréntesis
(mar5 <- filter(vuelos, mes == 3, día == 5)) 
```

    ## # A tibble: 965 × 19
    ##      año   mes   día hora_salida h_programada_salida demora_salida
    ##    <int> <int> <int>       <int>               <int>         <dbl>
    ## 1   2013     3     5         505                 500             5
    ## 2   2013     3     5         508                 515            -7
    ## 3   2013     3     5         527                 530            -3
    ## 4   2013     3     5         537                 540            -3
    ## 5   2013     3     5         539                 545            -6
    ## 6   2013     3     5         551                 600            -9
    ## 7   2013     3     5         551                 600            -9
    ## 8   2013     3     5         553                 600            -7
    ## 9   2013     3     5         553                 600            -7
    ## 10  2013     3     5         554                 600            -6
    ## # ... with 955 more rows, and 13 more variables: hora_llegada <int>,
    ## #   h_programada_llegada <int>, demora_llegada <dbl>, aerolinea <chr>,
    ## #   vuelo <int>, numerocola <chr>, origen <chr>, distancia <chr>,
    ## #   tiempo_vuelo <dbl>, distance <dbl>, hora <dbl>, minuto <dbl>,
    ## #   fecha_hora <dttm>
